%!PS
/L/S/W/T/M/+/Z/F[{for}{exch def}{add}{rmoveto}{l + sin mul}{Z -14.2001 1
12}{25 mul/r Z/l Z r 0 T r 90 T}{1 S rlineto}]{def}forall{Z 72 72 360}/I
W{/a W{/b I{/i I 2 div{/m I moveto i m +/j I{/l Z j l + b m T a 0 T sub
m sin div .2 + floor .3 + S M}F pop i 0 0 j L M L stroke}F}F}F}F
showpage
